{
  "project_info": {
    "project_number": "122884161878",
    "firebase_url": "https://aumenti-69e18.firebaseio.com",
    "project_id": "aumenti-69e18",
    "storage_bucket": "aumenti-69e18.appspot.com"
  },
  "client": [
    {
      "client_info": {
        "mobilesdk_app_id": "1:122884161878:android:8a0fefcf50698e71",
        "android_client_info": {
          "package_name": "com.example.usuario.tfgvuforia"
        }
      },
      "oauth_client": [
        {
          "client_id": "122884161878-t7sc0bd9ahpon3is7bmgu3el8clsljl3.apps.googleusercontent.com",
          "client_type": 1,
          "android_info": {
            "package_name": "com.example.usuario.tfgvuforia",
            "certificate_hash": "6b2630d363dd243df2bdc17a3e7495ec18917a10"
          }
        },
        {
          "client_id": "122884161878-nsb4c9ltv3046bf8j8kps21mj3fu4a94.apps.googleusercontent.com",
          "client_type": 3
        }
      ],
      "api_key": [
        {
          "current_key": "AIzaSyCkW9gV-fMQnkbuwtsrsnz8ZvlstcdqNPA"
        }
      ],
      "services": {
        "analytics_service": {
          "status": 1
        },
        "appinvite_service": {
          "status": 2,
          "other_platform_oauth_client": [
            {
              "client_id": "122884161878-nsb4c9ltv3046bf8j8kps21mj3fu4a94.apps.googleusercontent.com",
              "client_type": 3
            }
          ]
        },
        "ads_service": {
          "status": 2
        }
      }
    }
  ],
  "configuration_version": "1"
}